.
├── classes
│   ├── User.php
│   └── utils.php
├── composer.json
├── composer.lock
├── config.dist
├── config.php
├── css
│   ├── bootstrap.min.css
│   ├── giglist.css
│   ├── hueman.css
│   └── simplex.min.css
├── file_tree.txt
├── fonts
│   ├── glyphicons-halflings-regular.eot
│   ├── glyphicons-halflings-regular.svg
│   ├── glyphicons-halflings-regular.ttf
│   └── glyphicons-halflings-regular.woff
├── img
│   ├── cream_pixels.png
│   ├── hero-bg.jpg
│   ├── hero-bg.png
│   ├── hero-bg.psd
│   ├── logo.png
│   ├── logo.psd
│   └── squared_metal.png
├── index.php
├── js
│   ├── bootstrap.js
│   ├── bootstrap.min.js
│   ├── jquery-2.1.0.min.js
│   ├── jquery.countdown.min.js
│   ├── jquery.plugin.js
│   ├── listgig.js
│   └── utils.js
├── routes.php
├── templates
│   ├── 404.html
│   ├── act.html
│   ├── acts.html
│   ├── admin_acts.html
│   ├── admin_base.html
│   ├── admin_gigs.html
│   ├── admin.html
│   ├── admin_users.html
│   ├── admin_venues.html
│   ├── base.html
│   ├── error.html
│   ├── gig.html
│   ├── index.html
│   ├── login.html
│   ├── parts
│   │   └── navbar.html
│   ├── search.html
│   ├── searchresults.html
│   ├── venue.html
│   └── venues.html
├── twig.php
├── vendor
│   ├── autoload.php
│   ├── composer
│   │   ├── autoload_classmap.php
│   │   ├── autoload_namespaces.php
│   │   ├── autoload_psr4.php
│   │   ├── autoload_real.php
│   │   ├── ClassLoader.php
│   │   └── installed.json
│   ├── slim
│   │   ├── slim
│   │   │   ├── composer.json
│   │   │   ├── CONTRIBUTING.md
│   │   │   ├── index.php
│   │   │   ├── LICENSE
│   │   │   ├── phpunit.xml.dist
│   │   │   ├── README.markdown
│   │   │   ├── Slim
│   │   │   │   ├── Environment.php
│   │   │   │   ├── Exception
│   │   │   │   │   ├── Pass.php
│   │   │   │   │   └── Stop.php
│   │   │   │   ├── Helper
│   │   │   │   │   └── Set.php
│   │   │   │   ├── Http
│   │   │   │   │   ├── Cookies.php
│   │   │   │   │   ├── Headers.php
│   │   │   │   │   ├── Request.php
│   │   │   │   │   ├── Response.php
│   │   │   │   │   └── Util.php
│   │   │   │   ├── Log.php
│   │   │   │   ├── LogWriter.php
│   │   │   │   ├── Middleware
│   │   │   │   │   ├── ContentTypes.php
│   │   │   │   │   ├── Flash.php
│   │   │   │   │   ├── MethodOverride.php
│   │   │   │   │   ├── PrettyExceptions.php
│   │   │   │   │   └── SessionCookie.php
│   │   │   │   ├── Middleware.php
│   │   │   │   ├── Route.php
│   │   │   │   ├── Router.php
│   │   │   │   ├── Slim.php
│   │   │   │   └── View.php
│   │   │   └── tests
│   │   │       ├── bootstrap.php
│   │   │       ├── EnvironmentTest.php
│   │   │       ├── Foo.php
│   │   │       ├── Helper
│   │   │       │   └── SetTest.php
│   │   │       ├── Http
│   │   │       │   ├── CookiesTest.php
│   │   │       │   ├── HeadersTest.php
│   │   │       │   ├── RequestTest.php
│   │   │       │   ├── ResponseTest.php
│   │   │       │   └── UtilTest.php
│   │   │       ├── LogTest.php
│   │   │       ├── LogWriterTest.php
│   │   │       ├── Middleware
│   │   │       │   ├── ContentTypesTest.php
│   │   │       │   ├── FlashTest.php
│   │   │       │   ├── MethodOverrideTest.php
│   │   │       │   ├── PrettyExceptionsTest.php
│   │   │       │   └── SessionCookieTest.php
│   │   │       ├── MiddlewareTest.php
│   │   │       ├── README
│   │   │       ├── RouterTest.php
│   │   │       ├── RouteTest.php
│   │   │       ├── SlimTest.php
│   │   │       ├── templates
│   │   │       │   └── test.php
│   │   │       └── ViewTest.php
│   │   └── views
│   │       └── Slim
│   │           └── Views
│   │               ├── composer.json
│   │               ├── README.md
│   │               ├── Smarty.php
│   │               ├── SmartyPlugins
│   │               │   ├── function.baseUrl.php
│   │               │   ├── function.siteUrl.php
│   │               │   └── function.urlFor.php
│   │               ├── TwigExtension.php
│   │               └── Twig.php
│   └── twig
│       └── twig
│           ├── CHANGELOG
│           ├── composer.json
│           ├── doc
│           │   ├── advanced_legacy.rst
│           │   ├── advanced.rst
│           │   ├── api.rst
│           │   ├── coding_standards.rst
│           │   ├── deprecated.rst
│           │   ├── filters
│           │   │   ├── abs.rst
│           │   │   ├── batch.rst
│           │   │   ├── capitalize.rst
│           │   │   ├── convert_encoding.rst
│           │   │   ├── date_modify.rst
│           │   │   ├── date.rst
│           │   │   ├── default.rst
│           │   │   ├── escape.rst
│           │   │   ├── first.rst
│           │   │   ├── format.rst
│           │   │   ├── index.rst
│           │   │   ├── join.rst
│           │   │   ├── json_encode.rst
│           │   │   ├── keys.rst
│           │   │   ├── last.rst
│           │   │   ├── length.rst
│           │   │   ├── lower.rst
│           │   │   ├── merge.rst
│           │   │   ├── nl2br.rst
│           │   │   ├── number_format.rst
│           │   │   ├── raw.rst
│           │   │   ├── replace.rst
│           │   │   ├── reverse.rst
│           │   │   ├── round.rst
│           │   │   ├── slice.rst
│           │   │   ├── sort.rst
│           │   │   ├── split.rst
│           │   │   ├── striptags.rst
│           │   │   ├── title.rst
│           │   │   ├── trim.rst
│           │   │   ├── upper.rst
│           │   │   └── url_encode.rst
│           │   ├── functions
│           │   │   ├── attribute.rst
│           │   │   ├── block.rst
│           │   │   ├── constant.rst
│           │   │   ├── cycle.rst
│           │   │   ├── date.rst
│           │   │   ├── dump.rst
│           │   │   ├── include.rst
│           │   │   ├── index.rst
│           │   │   ├── max.rst
│           │   │   ├── min.rst
│           │   │   ├── parent.rst
│           │   │   ├── random.rst
│           │   │   ├── range.rst
│           │   │   ├── source.rst
│           │   │   └── template_from_string.rst
│           │   ├── index.rst
│           │   ├── installation.rst
│           │   ├── internals.rst
│           │   ├── intro.rst
│           │   ├── recipes.rst
│           │   ├── tags
│           │   │   ├── autoescape.rst
│           │   │   ├── block.rst
│           │   │   ├── do.rst
│           │   │   ├── embed.rst
│           │   │   ├── extends.rst
│           │   │   ├── filter.rst
│           │   │   ├── flush.rst
│           │   │   ├── for.rst
│           │   │   ├── from.rst
│           │   │   ├── if.rst
│           │   │   ├── import.rst
│           │   │   ├── include.rst
│           │   │   ├── index.rst
│           │   │   ├── macro.rst
│           │   │   ├── sandbox.rst
│           │   │   ├── set.rst
│           │   │   ├── spaceless.rst
│           │   │   ├── use.rst
│           │   │   └── verbatim.rst
│           │   ├── templates.rst
│           │   └── tests
│           │       ├── constant.rst
│           │       ├── defined.rst
│           │       ├── divisibleby.rst
│           │       ├── empty.rst
│           │       ├── even.rst
│           │       ├── index.rst
│           │       ├── iterable.rst
│           │       ├── null.rst
│           │       ├── odd.rst
│           │       └── sameas.rst
│           ├── ext
│           │   └── twig
│           │       ├── config.m4
│           │       ├── config.w32
│           │       ├── LICENSE
│           │       ├── php_twig.h
│           │       └── twig.c
│           ├── lib
│           │   └── Twig
│           │       ├── Autoloader.php
│           │       ├── CompilerInterface.php
│           │       ├── Compiler.php
│           │       ├── Environment.php
│           │       ├── Error
│           │       │   ├── Loader.php
│           │       │   ├── Runtime.php
│           │       │   └── Syntax.php
│           │       ├── Error.php
│           │       ├── ExistsLoaderInterface.php
│           │       ├── ExpressionParser.php
│           │       ├── Extension
│           │       │   ├── Core.php
│           │       │   ├── Debug.php
│           │       │   ├── Escaper.php
│           │       │   ├── Optimizer.php
│           │       │   ├── Sandbox.php
│           │       │   ├── Staging.php
│           │       │   └── StringLoader.php
│           │       ├── ExtensionInterface.php
│           │       ├── Extension.php
│           │       ├── Filter
│           │       │   ├── Function.php
│           │       │   ├── Method.php
│           │       │   └── Node.php
│           │       ├── FilterCallableInterface.php
│           │       ├── FilterInterface.php
│           │       ├── Filter.php
│           │       ├── Function
│           │       │   ├── Function.php
│           │       │   ├── Method.php
│           │       │   └── Node.php
│           │       ├── FunctionCallableInterface.php
│           │       ├── FunctionInterface.php
│           │       ├── Function.php
│           │       ├── LexerInterface.php
│           │       ├── Lexer.php
│           │       ├── Loader
│           │       │   ├── Array.php
│           │       │   ├── Chain.php
│           │       │   ├── Filesystem.php
│           │       │   └── String.php
│           │       ├── LoaderInterface.php
│           │       ├── Markup.php
│           │       ├── Node
│           │       │   ├── AutoEscape.php
│           │       │   ├── Block.php
│           │       │   ├── BlockReference.php
│           │       │   ├── Body.php
│           │       │   ├── Do.php
│           │       │   ├── Embed.php
│           │       │   ├── Expression
│           │       │   │   ├── Array.php
│           │       │   │   ├── AssignName.php
│           │       │   │   ├── Binary
│           │       │   │   │   ├── Add.php
│           │       │   │   │   ├── And.php
│           │       │   │   │   ├── BitwiseAnd.php
│           │       │   │   │   ├── BitwiseOr.php
│           │       │   │   │   ├── BitwiseXor.php
│           │       │   │   │   ├── Concat.php
│           │       │   │   │   ├── Div.php
│           │       │   │   │   ├── EndsWith.php
│           │       │   │   │   ├── Equal.php
│           │       │   │   │   ├── FloorDiv.php
│           │       │   │   │   ├── GreaterEqual.php
│           │       │   │   │   ├── Greater.php
│           │       │   │   │   ├── In.php
│           │       │   │   │   ├── LessEqual.php
│           │       │   │   │   ├── Less.php
│           │       │   │   │   ├── Matches.php
│           │       │   │   │   ├── Mod.php
│           │       │   │   │   ├── Mul.php
│           │       │   │   │   ├── NotEqual.php
│           │       │   │   │   ├── NotIn.php
│           │       │   │   │   ├── Or.php
│           │       │   │   │   ├── Power.php
│           │       │   │   │   ├── Range.php
│           │       │   │   │   ├── StartsWith.php
│           │       │   │   │   └── Sub.php
│           │       │   │   ├── Binary.php
│           │       │   │   ├── BlockReference.php
│           │       │   │   ├── Call.php
│           │       │   │   ├── Conditional.php
│           │       │   │   ├── Constant.php
│           │       │   │   ├── ExtensionReference.php
│           │       │   │   ├── Filter
│           │       │   │   │   └── Default.php
│           │       │   │   ├── Filter.php
│           │       │   │   ├── Function.php
│           │       │   │   ├── GetAttr.php
│           │       │   │   ├── MethodCall.php
│           │       │   │   ├── Name.php
│           │       │   │   ├── Parent.php
│           │       │   │   ├── TempName.php
│           │       │   │   ├── Test
│           │       │   │   │   ├── Constant.php
│           │       │   │   │   ├── Defined.php
│           │       │   │   │   ├── Divisibleby.php
│           │       │   │   │   ├── Even.php
│           │       │   │   │   ├── Null.php
│           │       │   │   │   ├── Odd.php
│           │       │   │   │   └── Sameas.php
│           │       │   │   ├── Test.php
│           │       │   │   ├── Unary
│           │       │   │   │   ├── Neg.php
│           │       │   │   │   ├── Not.php
│           │       │   │   │   └── Pos.php
│           │       │   │   └── Unary.php
│           │       │   ├── Expression.php
│           │       │   ├── Flush.php
│           │       │   ├── ForLoop.php
│           │       │   ├── For.php
│           │       │   ├── If.php
│           │       │   ├── Import.php
│           │       │   ├── Include.php
│           │       │   ├── Macro.php
│           │       │   ├── Module.php
│           │       │   ├── Print.php
│           │       │   ├── SandboxedModule.php
│           │       │   ├── SandboxedPrint.php
│           │       │   ├── Sandbox.php
│           │       │   ├── Set.php
│           │       │   ├── SetTemp.php
│           │       │   ├── Spaceless.php
│           │       │   └── Text.php
│           │       ├── NodeInterface.php
│           │       ├── NodeOutputInterface.php
│           │       ├── Node.php
│           │       ├── NodeTraverser.php
│           │       ├── NodeVisitor
│           │       │   ├── Escaper.php
│           │       │   ├── Optimizer.php
│           │       │   ├── SafeAnalysis.php
│           │       │   └── Sandbox.php
│           │       ├── NodeVisitorInterface.php
│           │       ├── ParserInterface.php
│           │       ├── Parser.php
│           │       ├── Sandbox
│           │       │   ├── SecurityError.php
│           │       │   ├── SecurityPolicyInterface.php
│           │       │   └── SecurityPolicy.php
│           │       ├── SimpleFilter.php
│           │       ├── SimpleFunction.php
│           │       ├── SimpleTest.php
│           │       ├── TemplateInterface.php
│           │       ├── Template.php
│           │       ├── Test
│           │       │   ├── Function.php
│           │       │   ├── IntegrationTestCase.php
│           │       │   ├── Method.php
│           │       │   ├── Node.php
│           │       │   └── NodeTestCase.php
│           │       ├── TestCallableInterface.php
│           │       ├── TestInterface.php
│           │       ├── Test.php
│           │       ├── TokenParser
│           │       │   ├── AutoEscape.php
│           │       │   ├── Block.php
│           │       │   ├── Do.php
│           │       │   ├── Embed.php
│           │       │   ├── Extends.php
│           │       │   ├── Filter.php
│           │       │   ├── Flush.php
│           │       │   ├── For.php
│           │       │   ├── From.php
│           │       │   ├── If.php
│           │       │   ├── Import.php
│           │       │   ├── Include.php
│           │       │   ├── Macro.php
│           │       │   ├── Sandbox.php
│           │       │   ├── Set.php
│           │       │   ├── Spaceless.php
│           │       │   └── Use.php
│           │       ├── TokenParserBrokerInterface.php
│           │       ├── TokenParserBroker.php
│           │       ├── TokenParserInterface.php
│           │       ├── TokenParser.php
│           │       ├── Token.php
│           │       └── TokenStream.php
│           ├── LICENSE
│           ├── phpunit.xml.dist
│           ├── README.rst
│           └── test
│               ├── bootstrap.php
│               └── Twig
│                   └── Tests
│                       ├── AutoloaderTest.php
│                       ├── CompilerTest.php
│                       ├── EnvironmentTest.php
│                       ├── ErrorTest.php
│                       ├── escapingTest.php
│                       ├── ExpressionParserTest.php
│                       ├── Extension
│                       │   ├── CoreTest.php
│                       │   └── SandboxTest.php
│                       ├── FileCachingTest.php
│                       ├── Fixtures
│                       │   ├── errors
│                       │   │   ├── base.html
│                       │   │   └── index.html
│                       │   ├── exceptions
│                       │   │   ├── unclosed_tag.test
│                       │   │   └── undefined_trait.test
│                       │   ├── expressions
│                       │   │   ├── array_call.test
│                       │   │   ├── array.test
│                       │   │   ├── binary.test
│                       │   │   ├── bitwise.test
│                       │   │   ├── comparison.test
│                       │   │   ├── divisibleby.test
│                       │   │   ├── dotdot.test
│                       │   │   ├── ends_with.test
│                       │   │   ├── grouping.test
│                       │   │   ├── literals.test
│                       │   │   ├── magic_call.test
│                       │   │   ├── matches.test
│                       │   │   ├── method_call.test
│                       │   │   ├── operators_as_variables.test
│                       │   │   ├── postfix.test
│                       │   │   ├── sameas.test
│                       │   │   ├── starts_with.test
│                       │   │   ├── strings.test
│                       │   │   ├── ternary_operator_noelse.test
│                       │   │   ├── ternary_operator_nothen.test
│                       │   │   ├── ternary_operator.test
│                       │   │   ├── two_word_operators_as_variables.test
│                       │   │   ├── unary_precedence.test
│                       │   │   └── unary.test
│                       │   ├── filters
│                       │   │   ├── abs.test
│                       │   │   ├── batch_float.php
│                       │   │   ├── batch.test
│                       │   │   ├── batch_with_empty_fill.test
│                       │   │   ├── batch_with_exact_elements.test
│                       │   │   ├── batch_with_fill.test
│                       │   │   ├── convert_encoding.test
│                       │   │   ├── date_default_format_interval.test
│                       │   │   ├── date_default_format.test
│                       │   │   ├── date_immutable.test
│                       │   │   ├── date_interval.test
│                       │   │   ├── date_modify.test
│                       │   │   ├── date_namedargs.test
│                       │   │   ├── date.test
│                       │   │   ├── default.test
│                       │   │   ├── dynamic_filter.test
│                       │   │   ├── escape_html_attr.test
│                       │   │   ├── escape_non_supported_charset.test
│                       │   │   ├── escape.test
│                       │   │   ├── first.test
│                       │   │   ├── force_escape.test
│                       │   │   ├── format.test
│                       │   │   ├── join.test
│                       │   │   ├── json_encode.test
│                       │   │   ├── last.test
│                       │   │   ├── length.test
│                       │   │   ├── length_utf8.test
│                       │   │   ├── merge.test
│                       │   │   ├── nl2br.test
│                       │   │   ├── number_format_default.test
│                       │   │   ├── number_format.test
│                       │   │   ├── replace.test
│                       │   │   ├── reverse.test
│                       │   │   ├── round.test
│                       │   │   ├── slice.test
│                       │   │   ├── sort.test
│                       │   │   ├── special_chars.test
│                       │   │   ├── split.test
│                       │   │   ├── trim.test
│                       │   │   └── urlencode.test
│                       │   ├── functions
│                       │   │   ├── attribute.test
│                       │   │   ├── block.test
│                       │   │   ├── constant.test
│                       │   │   ├── cycle.test
│                       │   │   ├── date_namedargs.test
│                       │   │   ├── date.test
│                       │   │   ├── dump_array.test
│                       │   │   ├── dump.test
│                       │   │   ├── dynamic_function.test
│                       │   │   ├── include
│                       │   │   │   ├── assignment.test
│                       │   │   │   ├── autoescaping.test
│                       │   │   │   ├── basic.test
│                       │   │   │   ├── expression.test
│                       │   │   │   ├── ignore_missing.test
│                       │   │   │   ├── missing_nested.test
│                       │   │   │   ├── missing.test
│                       │   │   │   ├── sandbox.test
│                       │   │   │   ├── template_instance.test
│                       │   │   │   ├── templates_as_array.test
│                       │   │   │   ├── with_context.test
│                       │   │   │   └── with_variables.test
│                       │   │   ├── max.test
│                       │   │   ├── min.test
│                       │   │   ├── range.test
│                       │   │   ├── source.test
│                       │   │   ├── special_chars.test
│                       │   │   └── template_from_string.test
│                       │   ├── macros
│                       │   │   ├── default_values.test
│                       │   │   ├── nested_calls.test
│                       │   │   ├── reserved_variables.test
│                       │   │   ├── simple.test
│                       │   │   └── with_filters.test
│                       │   ├── regression
│                       │   │   ├── empty_token.test
│                       │   │   ├── issue_1143.test
│                       │   │   ├── simple_xml_element.test
│                       │   │   └── strings_like_numbers.test
│                       │   ├── tags
│                       │   │   ├── autoescape
│                       │   │   │   ├── basic.test
│                       │   │   │   ├── blocks.test
│                       │   │   │   ├── double_escaping.test
│                       │   │   │   ├── functions.test
│                       │   │   │   ├── literal.test
│                       │   │   │   ├── nested.test
│                       │   │   │   ├── objects.test
│                       │   │   │   ├── raw.test
│                       │   │   │   ├── strategy.test
│                       │   │   │   ├── type.test
│                       │   │   │   ├── with_filters_arguments.test
│                       │   │   │   ├── with_filters.test
│                       │   │   │   ├── with_pre_escape_filters.test
│                       │   │   │   └── with_preserves_safety_filters.test
│                       │   │   ├── block
│                       │   │   │   ├── basic.test
│                       │   │   │   ├── block_unique_name.test
│                       │   │   │   └── special_chars.test
│                       │   │   ├── embed
│                       │   │   │   ├── basic.test
│                       │   │   │   ├── error_line.test
│                       │   │   │   ├── multiple.test
│                       │   │   │   ├── nested.test
│                       │   │   │   └── with_extends.test
│                       │   │   ├── filter
│                       │   │   │   ├── basic.test
│                       │   │   │   ├── json_encode.test
│                       │   │   │   ├── multiple.test
│                       │   │   │   ├── nested.test
│                       │   │   │   ├── with_for_tag.test
│                       │   │   │   └── with_if_tag.test
│                       │   │   ├── for
│                       │   │   │   ├── condition.test
│                       │   │   │   ├── context.test
│                       │   │   │   ├── else.test
│                       │   │   │   ├── inner_variables.test
│                       │   │   │   ├── keys_and_values.test
│                       │   │   │   ├── keys.test
│                       │   │   │   ├── loop_context_local.test
│                       │   │   │   ├── loop_context.test
│                       │   │   │   ├── loop_not_defined_cond.test
│                       │   │   │   ├── loop_not_defined.test
│                       │   │   │   ├── nested_else.test
│                       │   │   │   ├── objects_countable.test
│                       │   │   │   ├── objects.test
│                       │   │   │   ├── recursive.test
│                       │   │   │   └── values.test
│                       │   │   ├── from.test
│                       │   │   ├── if
│                       │   │   │   ├── basic.test
│                       │   │   │   └── expression.test
│                       │   │   ├── include
│                       │   │   │   ├── basic.test
│                       │   │   │   ├── expression.test
│                       │   │   │   ├── ignore_missing.test
│                       │   │   │   ├── missing_nested.test
│                       │   │   │   ├── missing.test
│                       │   │   │   ├── only.test
│                       │   │   │   ├── template_instance.test
│                       │   │   │   ├── templates_as_array.test
│                       │   │   │   └── with_variables.test
│                       │   │   ├── inheritance
│                       │   │   │   ├── basic.test
│                       │   │   │   ├── conditional.test
│                       │   │   │   ├── dynamic.test
│                       │   │   │   ├── empty.test
│                       │   │   │   ├── extends_as_array.test
│                       │   │   │   ├── multiple.test
│                       │   │   │   ├── nested_blocks_parent_only.test
│                       │   │   │   ├── nested_blocks.test
│                       │   │   │   ├── nested_inheritance.test
│                       │   │   │   ├── parent_change.test
│                       │   │   │   ├── parent_in_a_block.test
│                       │   │   │   ├── parent_isolation.test
│                       │   │   │   ├── parent_nested.test
│                       │   │   │   ├── parent.test
│                       │   │   │   ├── parent_without_extends_but_traits.test
│                       │   │   │   ├── parent_without_extends.test
│                       │   │   │   ├── template_instance.test
│                       │   │   │   └── use.test
│                       │   │   ├── macro
│                       │   │   │   ├── basic.test
│                       │   │   │   ├── endmacro_name.test
│                       │   │   │   ├── external.test
│                       │   │   │   ├── from.test
│                       │   │   │   ├── global.test
│                       │   │   │   ├── self_import.test
│                       │   │   │   └── special_chars.test
│                       │   │   ├── raw
│                       │   │   │   ├── basic.test
│                       │   │   │   ├── mixed_usage_with_raw.test
│                       │   │   │   └── whitespace_control.test
│                       │   │   ├── sandbox
│                       │   │   │   ├── not_valid1.test
│                       │   │   │   ├── not_valid2.test
│                       │   │   │   └── simple.test
│                       │   │   ├── set
│                       │   │   │   ├── basic.test
│                       │   │   │   ├── capture-empty.test
│                       │   │   │   ├── capture.test
│                       │   │   │   └── expression.test
│                       │   │   ├── spaceless
│                       │   │   │   └── simple.test
│                       │   │   ├── special_chars.test
│                       │   │   ├── trim_block.test
│                       │   │   ├── use
│                       │   │   │   ├── aliases.test
│                       │   │   │   ├── basic.test
│                       │   │   │   ├── deep_empty.test
│                       │   │   │   ├── deep.test
│                       │   │   │   ├── multiple_aliases.test
│                       │   │   │   └── multiple.test
│                       │   │   └── verbatim
│                       │   │       ├── basic.test
│                       │   │       ├── mixed_usage_with_raw.test
│                       │   │       └── whitespace_control.test
│                       │   └── tests
│                       │       ├── array.test
│                       │       ├── constant.test
│                       │       ├── defined.test
│                       │       ├── empty.test
│                       │       ├── even.test
│                       │       ├── in.test
│                       │       ├── in_with_objects.test
│                       │       ├── iterable.test
│                       │       └── odd.test
│                       ├── IntegrationTest.php
│                       ├── LexerTest.php
│                       ├── Loader
│                       │   ├── ArrayTest.php
│                       │   ├── ChainTest.php
│                       │   ├── FilesystemTest.php
│                       │   └── Fixtures
│                       │       ├── named
│                       │       │   └── index.html
│                       │       ├── named_bis
│                       │       │   └── index.html
│                       │       ├── named_final
│                       │       │   └── index.html
│                       │       ├── named_ter
│                       │       │   └── index.html
│                       │       ├── normal
│                       │       │   └── index.html
│                       │       ├── normal_bis
│                       │       │   └── index.html
│                       │       ├── normal_final
│                       │       │   └── index.html
│                       │       ├── normal_ter
│                       │       │   └── index.html
│                       │       └── themes
│                       │           ├── theme1
│                       │           │   └── blocks.html.twig
│                       │           └── theme2
│                       │               └── blocks.html.twig
│                       ├── NativeExtensionTest.php
│                       ├── Node
│                       │   ├── AutoEscapeTest.php
│                       │   ├── BlockReferenceTest.php
│                       │   ├── BlockTest.php
│                       │   ├── DoTest.php
│                       │   ├── Expression
│                       │   │   ├── ArrayTest.php
│                       │   │   ├── AssignNameTest.php
│                       │   │   ├── Binary
│                       │   │   │   ├── AddTest.php
│                       │   │   │   ├── AndTest.php
│                       │   │   │   ├── ConcatTest.php
│                       │   │   │   ├── DivTest.php
│                       │   │   │   ├── FloorDivTest.php
│                       │   │   │   ├── ModTest.php
│                       │   │   │   ├── MulTest.php
│                       │   │   │   ├── OrTest.php
│                       │   │   │   └── SubTest.php
│                       │   │   ├── CallTest.php
│                       │   │   ├── ConditionalTest.php
│                       │   │   ├── ConstantTest.php
│                       │   │   ├── FilterTest.php
│                       │   │   ├── FunctionTest.php
│                       │   │   ├── GetAttrTest.php
│                       │   │   ├── NameTest.php
│                       │   │   ├── ParentTest.php
│                       │   │   ├── PHP53
│                       │   │   │   ├── FilterInclude.php
│                       │   │   │   ├── FunctionInclude.php
│                       │   │   │   └── TestInclude.php
│                       │   │   ├── TestTest.php
│                       │   │   └── Unary
│                       │   │       ├── NegTest.php
│                       │   │       ├── NotTest.php
│                       │   │       └── PosTest.php
│                       │   ├── ForTest.php
│                       │   ├── IfTest.php
│                       │   ├── ImportTest.php
│                       │   ├── IncludeTest.php
│                       │   ├── MacroTest.php
│                       │   ├── ModuleTest.php
│                       │   ├── PrintTest.php
│                       │   ├── SandboxedModuleTest.php
│                       │   ├── SandboxedPrintTest.php
│                       │   ├── SandboxTest.php
│                       │   ├── SetTest.php
│                       │   ├── SpacelessTest.php
│                       │   └── TextTest.php
│                       ├── NodeVisitor
│                       │   └── OptimizerTest.php
│                       ├── ParserTest.php
│                       ├── TemplateTest.php
│                       └── TokenStreamTest.php
└── views
    ├── act.php
    ├── acts.php
    ├── admin
    │   ├── acts.php
    │   ├── act_update.php
    │   ├── gigs.php
    │   ├── users.php
    │   └── venues.php
    ├── api
    │   ├── spotlight.php
    │   └── upcoming.php
    ├── gig.php
    ├── login.php
    ├── searcher.php
    ├── venue.php
    └── venues.php

138 directories, 697 files
